{
    "regions": [
        "National",
        "Auvergne-Rhône-Alpes",
        "Bourgogne-Franche-Comté",
        "Bretagne",
        "Centre-Val de Loire",
        "Corse",
        "DOM-TOM",
        "Grand Est",
        "Hauts-de-France",
        "Île-de-France",
        "Normandie",
        "Nouvelle-Aquitaine",
        "Occitanie",
        "Pays de la Loire",
        "Provence-Alpes-Côte d'Azur"
    ],
    "departements": [
        "Ain",
        "Aisne",
        "Allier",
        "Alpes-de-Haute-Provence",
        "Alpes-maritimes",
        "Ardèche",
        "Ardennes",
        "Ariège",
        "Aube",
        "Aude",
        "Aveyron",
        "Bas-rhin",
        "Bouches-du-Rhône",
        "Calvados",
        "Cantal",
        "Charente",
        "Charente-maritime",
        "Cher",
        "Corrèze",
        "Corse-du-sud",
        "Côte-d'Or",
        "Côtes-d'Armor",
        "Creuse",
        "Deux-sèvres",
        "Dordogne",
        "Doubs",
        "Drôme",
        "Essonne",
        "Eure",
        "Eure-et-loir",
        "Finistère",
        "Gard",
        "Guadeloupe",
        "Guyane",
        "Hautes-Alpes",
        "Haute-Corse",
        "Hauts-de-seine",
        "Haute-Garonne",
        "Haute-loire",
        "Haute-marne",
        "Hautes-Pyrénées",
        "Haut-rhin",
        "Haute-saône",
        "Haute-savoie",        
        "Haute-vienne",
        "Hérault",
        "Gers",
        "Gironde",
        "Ille-et-vilaine",
        "Indre",
        "Indre-et-loire",
        "Isère",
        "Jura",
        "Landes",
        "La réunion",
        "Loir-et-cher",
        "Loire",
        "Loire-atlantique",
        "Loiret",
        "Lot",
        "Lot-et-garonne",
        "Lozère",
        "Maine-et-loire",
        "Manche",
        "Marne",
        "Martinique",
        "Mayenne",
        "Mayotte",
        "Meurthe-et-moselle",
        "Meuse",
        "Morbihan",
        "Moselle",
        "Nièvre",
        "Nord",
        "Oise",
        "Orne",
        "Paris",
        "Pas-de-calais",
        "Puy-de-dôme",
        "Pyrénées-atlantiques",
        "Pyrénées-orientales",
        "Rhône",
        "Saône-et-loire",
        "Sarthe",
        "Savoie",
        "Seine-et-marne",
        "Seine-maritime",
        "Seine-Saint-Denis",
        "Somme",
        "Tarn",
        "Tarn-et-garonne",
        "Territoire de Belfort",
        "Val-de-marne",
        "Val-d'oise",
        "Var",
        "Vaucluse",
        "Vendée",
        "Vienne",
        "Vosges",
        "Yonne",
        "Yvelines"
    ],
    "sourceurs": [
        {"label": "AG2R La Mondiale", "key": "ag2rlamondiale"},
        {"label": "Apriles", "key": "apriles"},
        {"label": "ATLAAS", "key": "villesinternet"},
        {"label": "Avise", "key": "avise"},
        {"label": "Bretagne Creative", "key": "bretagne_creative"},
        {"label": "CGET", "key": "labegalitecitoyennete"},
        {"label": "Europe En France", "key": "europeenfrance"},
        {"label": "Fondation Bettencourt Schueller", "key": "fondationbs"},
        {"label": "Fondation Daniel et Nina Carasso", "key":"carasso"},
        {"label": "Fondation EDF", "key": "fondationedf"},
        {"label": "Fondation MACIF", "key": "fondationmacif"},
        {"label": "Fondation MAIF", "key": "fondationmaif"},
        {"label": "Fondation RTE", "key": "fondationrte"},
        {"label": "Fondation Veolia", "key": "veolia"},
        {"label": "Fondation Vinci", "key": "vinci"},
        {"label": "Le Labo de l’ESS", "key": "lelaboess"},
        {"label": "My Positive Impact", "key": "mypositiveimpact"},
        {"label": "Réseau rural", "key": "reseaurural"},
        {"label": "RTES", "key": "rtes"},
        {"label": "Semeoz", "key": "semeoz"},
        {"label": "Socialement responsable", "key": "socialementresponsable"},
        {"label": "Solidarum", "key": "solidarum"},
        {"label": "Sparknews", "key": "sparknews"},
        {"label": "Synergies", "key": "reseaucollectivite53"},
        {"label": "Territoires Conseils", "key": "caissedepotsterritoires"},
        {"label": "UIA Initiative", "key": "uiainitiative"},
        {"label": "Urbact", "key": "urbact"}
    ]
}
